…
## Example

This is a basic example which shows you how to solve a common problem:

``` r
library(bis620.2022)
## basic example code

#to get FFT of dimensions and frequency from time
data("ukb_accel")
ukb_accel |> spectral_signature()
#> # A tibble: 540,000 × 4
#>          X      Y       Z      freq
#>      <dbl>  <dbl>   <dbl>     <dbl>
#>  1  78038. 28208. 753298. 0.0000913
#>  2 153932. 98732.  53521. 0.0000913
#>  3  43385. 58240.  66251. 0.0000913
#>  4  53004. 50652.  10922. 0.0000913
#>  5  97164. 76529.  59418. 0.0000913
#>  6  30740. 49130. 101001. 0.0000913
#>  7 116648. 58509.  84698. 0.0000913
#>  8  43271. 55604.  39442. 0.0000913
#>  9  63228. 73288.  46781. 0.0000913
#> 10  56477. 17581.  70102. 0.0000913
#> # … with 539,990 more rows
…
